{
    "$schema": "https://go.kicad.org/pcm/schemas/v1",
    "name": "KiKit Library",
    "description": "A footprint and schematic library for KiKit annotations.",
    "description_full": "KiKit uses these symbols a footprints to annotate your boards (e.g., to place a tab in a panel).",
    "identifier": "com.github.yaqwsx.kikit-library",
    "type": "library",
    "author": {
        "name": "Jan Mr\u00e1zek",
        "contact": {
            "github": "https://github.com/yaqwsx",
            "web": "https://honzamrazek.cz",
            "twitter": "https://twitter.com/yaqwsx_cz"
        }
    },
    "maintainer": {
        "name": "Jan Mr\u00e1zek",
        "contact": {
            "github": "https://github.com/yaqwsx",
            "web": "https://honzamrazek.cz",
            "twitter": "https://twitter.com/yaqwsx_cz"
        }
    },
    "license": "MIT",
    "resources": {
        "homepage": "https://github.com/yaqwsx/KiKit"
    },
    "versions": [
        {
            "version": "1.0.0",
            "status": "stable",
            "kicad_version": "6.0",
            "install_size": 14938,
            "download_sha256": "29422a7a530d68ec3a614a7a8043779bb05e8ed0d9d9e6e9f843e26d3f623aa2",
            "download_size": 11223,
            "download_url": "https://github.com/yaqwsx/KiKit/releases/download/v1.0.0/pcm-kikit-lib.zip"
        }
    ]
}